Accessing Spanish AQ and met data with saqgetr and worldmet
…
saqgetr imports AQ data.

worldmet imports meteorology data.

openair has many useful functions for analysing AQ data.

2 Getting Spanish AQ data

We will use the saqgetr to access AQ data. This package not only lets you access AQ data in Spain but also most European countries.

get_saq_sites() %>%
  count(country)

## # A tibble: 42 x 2
##    country                    n
##    <chr>                  <int>
##  1 <NA>                      20
##  2 albania                    7
##  3 andorra                    3
##  4 austria                  284
##  5 belgium                  422
##  6 bosnia_and_herzegovina    16
##  7 bulgaria                  49
##  8 croatia                   24
##  9 cyprus                     9
## 10 czechia                  241
## # ... with 32 more rows
…
